<?xml version="1.0" encoding="utf-8"?>
<!-- Generator: Adobe Illustrator 24.0.1, SVG Export Plug-In . SVG Version: 6.00 Build 0)  -->
<svg version="1.1" id="Layer_1" xmlns="http://www.w3.org/2000/svg" xmlns:xlink="http://www.w3.org/1999/xlink" x="0px" y="0px"
	 viewBox="0 0 96.8 19.7" style="enable-background:new 0 0 96.8 19.7;" xml:space="preserve">
<style type="text/css">
	.st0{fill:none;stroke:#333333;stroke-width:1.2;stroke-miterlimit:10;}
</style>
<title>logo</title>
<path class="st0" d="M0.6,17.6v-4.1c0-3.9,1.6-4.8,3.9-5.5l3.2-1c0.4-0.1,0.5-0.2,0.5-0.6S8.1,6,7.8,6H2.6C1.8,6,1.5,5.7,1.5,4.9
	V2.1C1.5,1.3,1.8,1,2.6,1h7.1c2.9,0,4.5,1.5,4.5,4.2v2.3c0,2.5-1.5,3.7-3.9,4.5L7,13c-0.3,0.1-0.4,0.1-0.4,0.5v0.3h6.6
	c0.8,0,1.1,0.3,1.1,1.1v2.8c0,0.8-0.3,1.1-1.1,1.1H1.7C0.9,18.7,0.6,18.4,0.6,17.6z M14,17.6v-2.8c0-0.6-0.3-0.9-0.9-0.9H6.3v-0.5
	c0-0.5,0.1-0.6,0.6-0.7l3.3-1c2.3-0.7,3.7-1.8,3.7-4.3V5.2c0-2.6-1.5-4-4.2-4H2.6C2,1.2,1.7,1.4,1.7,2v2.8c0,0.6,0.3,0.9,0.9,0.9
	h5.2c0.5,0,0.6,0.1,0.6,0.6S8.3,7.1,7.8,7.2l-3.2,1c-2.2,0.7-3.8,1.6-3.8,5.3v4.1c0,0.6,0.3,0.9,0.9,0.9h11.4
	C13.7,18.5,14,18.2,14,17.6L14,17.6z M10.4,8.8c0.5-0.2,0.7-0.6,0.7-1.1V5.4c0-1.5-0.9-1.8-2.3-1.8H3.9V3.4h4.8
	c1.6,0,2.6,0.5,2.6,2.1v2.2C11.4,8.2,11,8.8,10.5,9l-5.6,1.8c-0.9,0.3-1.2,0.7-1.2,1.8v3.5h8.2v0.2H3.5v-3.7c0-1.2,0.3-1.6,1.3-2
	L10.4,8.8z"/>
<path class="st0" d="M15.6,17.6v-2.9c0-0.8,0.3-1.1,1.1-1.1h2.5V6.1h-2c-0.8,0-1.1-0.3-1.1-1.1V2.1c0-0.8,0.3-1.1,1.1-1.1h7
	c0.8,0,1.1,0.3,1.1,1.1v11.6h2.1c0.8,0,1.1,0.3,1.1,1.1v2.9c0,0.8-0.3,1.1-1.1,1.1H16.8C16,18.7,15.6,18.4,15.6,17.6z M28.2,17.6
	v-2.9c0-0.6-0.3-0.9-0.9-0.9h-2.3V2.1c0-0.6-0.3-0.9-0.9-0.9h-7c-0.6,0-0.9,0.3-0.9,0.9V5c0,0.6,0.3,0.9,0.9,0.9h2.2v8h-2.6
	c-0.6,0-0.9,0.3-0.9,0.9v2.9c0,0.6,0.3,0.9,0.9,0.9h10.6C28,18.5,28.2,18.2,28.2,17.6z M18,16.2h4.1V3.6h-3.6V3.4h3.8v12.8h3.7v0.2
	h-8L18,16.2z"/>
<path class="st0" d="M29.6,17.6v-2.8c0-0.8,0.3-1.1,1.1-1.1h6c0.5,0,0.7-0.2,0.7-0.5v-0.6c0-0.3-0.2-0.5-0.7-0.5h-4.1
	c-0.8,0-1.1-0.3-1.1-1.1V8.4c0-0.8,0.3-1.1,1.1-1.1h2.5c0.5,0,0.7-0.2,0.7-0.5V6.5c0-0.3-0.2-0.5-0.7-0.5h-4.5
	c-0.8,0-1.1-0.3-1.1-1.1V2.1c0-0.8,0.3-1.1,1.1-1.1h6.7c2.8,0,4.2,1.4,4.2,3.7V6c0.1,0.9-0.3,1.9-1,2.5c1.9,0.4,2.6,1.6,2.6,3.6v2.4
	c0,2.6-1.6,4.2-4.9,4.2h-7.5C30,18.7,29.6,18.4,29.6,17.6z M29.9,14.8v2.8c0,0.6,0.3,0.9,0.9,0.9h7.6c3.1,0,4.7-1.5,4.7-4v-2.4
	c0-2.1-0.7-3.2-3-3.5c1-0.5,1.6-1.5,1.4-2.6V4.6c0-2.1-1.3-3.4-3.9-3.4h-6.7c-0.6,0-0.9,0.3-0.9,0.9v2.9c0,0.6,0.3,0.9,0.9,0.9h4.5
	c0.8,0,0.9,0.3,0.9,0.7v0.4c0,0.4-0.2,0.7-0.9,0.7h-2.5c-0.6,0-0.9,0.3-0.9,0.9V11c0,0.6,0.3,0.9,0.9,0.9h4.1c0.8,0,0.9,0.3,0.9,0.7
	v0.6c0,0.4-0.2,0.7-0.9,0.7h-6C30.1,13.9,29.9,14.2,29.9,14.8z M34,9.6h2c2.4,0,2.7-1,2.7-2.2V5.8c0-1.2-0.6-2.2-2.9-2.2H32V3.4h3.7
	c2.7,0,3.2,1.1,3.2,2.5v1.5c0.2,1-0.5,2-1.6,2.2c0,0,0,0,0,0h0.4c2,0,2.8,0.9,2.8,2.6v1.6c0,1.4-0.5,2.4-3.1,2.4H32v-0.2h5.3
	c2.4,0,2.9-0.8,2.9-2.2v-1.6c0-1.6-0.7-2.4-2.6-2.4H34V9.6z"/>
<path class="st0" d="M45.7,17.6v-4.3c0-3.2,1.2-4.2,3.9-5l1.8-0.5V6.1H45c-0.8,0-1.1-0.3-1.1-1.1V2.1C43.9,1.3,44.2,1,45,1h11.2
	c0.8,0,1.1,0.3,1.1,1.1v6.1c0,3.2-1.2,4.2-3.9,5l-1.6,0.5v4c0,0.8-0.3,1.1-1.1,1.1h-3.9C46,18.7,45.7,18.4,45.7,17.6z M45,1.2
	c-0.6,0-0.9,0.3-0.9,0.9V5c0,0.6,0.3,0.9,0.9,0.9h6.6V8l-1.9,0.5c-2.6,0.8-3.8,1.7-3.8,4.8v4.3c0,0.6,0.3,0.9,0.9,0.9h3.9
	c0.6,0,0.9-0.3,0.9-0.9v-4.2l1.8-0.5c2.6-0.8,3.8-1.7,3.8-4.8V2.1c0-0.6-0.3-0.9-0.9-0.9L45,1.2z M48.6,12.7
	c-0.1-0.6,0.3-1.1,0.8-1.3l4.1-1.6c0.5-0.1,0.8-0.6,0.7-1.1v-5h-7.9V3.4h8.1v5.3c0.1,0.6-0.3,1.2-0.8,1.4l-4.1,1.6
	c-0.5,0.2-0.7,0.6-0.7,1.1v3.6h-0.2V12.7z"/>
<path class="st0" d="M63.9,18.7H59c-0.8,0-1.1-0.3-1.1-1.1v-4.9c0-0.8,0.3-1.1,1.1-1.1h4.8c0.8,0,1.1,0.3,1.1,1.1v4.9
	C65,18.4,64.7,18.7,63.9,18.7z M64.8,17.6v-4.9c0-0.6-0.3-0.9-0.9-0.9H59c-0.6,0-0.9,0.2-0.9,0.9v4.9c0,0.6,0.3,0.9,0.9,0.9h4.8
	C64.5,18.5,64.8,18.2,64.8,17.6z M61.3,14h0.2v2.3h-0.2V14z"/>
<path class="st0" d="M66.6,17.6v-2.9c0-0.8,0.3-1.1,1.1-1.1h2.1V6.1h-2.1c-0.8,0-1.1-0.3-1.1-1.1V2.1C66.6,1.3,67,1,67.7,1H78
	c0.8,0,1.1,0.3,1.1,1.1V5c0,0.8-0.3,1.1-1.1,1.1h-2.1v7.6H78c0.8,0,1.1,0.3,1.1,1.1v2.9c0,0.8-0.3,1.1-1.1,1.1H67.7
	C67,18.7,66.6,18.4,66.6,17.6z M78,18.5c0.6,0,0.9-0.3,0.9-0.9v-2.9c0-0.6-0.3-0.9-0.9-0.9h-2.4V5.8H78c0.6,0,0.9-0.3,0.9-0.9V2.1
	c0-0.6-0.3-0.9-0.9-0.9H67.7c-0.6,0-0.9,0.3-0.9,0.9V5c0,0.6,0.3,0.9,0.9,0.9h2.4v8h-2.4c-0.6,0-0.9,0.3-0.9,0.9v2.9
	c0,0.6,0.3,0.9,0.9,0.9H78z M69,16.3v-0.2h3.7V3.6H69V3.4h7.6v0.2H73v12.5h3.7v0.2H69z"/>
<path class="st0" d="M96.2,13.9c0,3-1.4,5.1-7.7,5.1s-7.7-2.1-7.7-5.1V5.8c0-3,1.4-5.2,7.7-5.2s7.7,2.1,7.7,5.2V13.9z M95.9,5.8
	c0-2.9-1.4-4.9-7.4-4.9S81,2.8,81,5.8v8.2c0,2.9,1.5,4.9,7.5,4.9s7.4-2,7.4-4.9L95.9,5.8z M88.4,16.6c-3.8,0-4.8-1.3-4.8-3.2V6.3
	c0-1.9,1-3.2,4.8-3.2s4.9,1.3,4.9,3.2v7.1C93.3,15.3,92.2,16.6,88.4,16.6z M88.4,16.4c3.6,0,4.6-1.2,4.6-3V6.3c0-1.8-1-3-4.6-3
	s-4.6,1.2-4.6,3v7.1C83.9,15.2,84.9,16.4,88.4,16.4z M86.4,6.6c0-0.6,0.3-1.1,2-1.1s2,0.5,2,1.1v6.5c0,0.6-0.3,1.1-2,1.1
	s-2-0.5-2-1.1V6.6z M86.7,13.1c0,0.6,0.4,0.9,1.8,0.9s1.8-0.3,1.8-0.9V6.6c0-0.6-0.4-0.9-1.8-0.9s-1.8,0.3-1.8,0.9V13.1z"/>
</svg>
